[
["explanation.html", "Chapter 4 Explanation 4.1 Selecting structure variant caller 4.2 Gene fusion notations 4.3 VAF calculation", " Chapter 4 Explanation 4.1 Selecting structure variant caller 4.1.1 Datasets We have 2 pair of samples and one of them (DHC1) has one translocation variant and the other (DHC2) has two. And we have made a comparison between LUMPY, NOVOBREAK, DELLY and BREAKDANCER based on this dataset. Name Chr Gene1 Breakpoint1 Chr Gene2 Breakpoint2 VAF(%) DHC1 chr11 FLI1 128805455 chr22 EWSR1 29288027 25 DHC2-1 chr1 TPM3 154170286 chr6 ROS1 117320930 15 DHC2-2 chr22 BCR 23292485 chr9 ABL1 130854291 25 4.1.2 Detecting mode In the 4 sv callers, novobreak and delly have their own filters, and delly has a stand-alone part while novobreak’s is built-in. Software Detecting mode filter LUMPY S &amp; TN no NOVOBREAK TN bulit-in DELLY S &amp; TN stand-alone BREAKDANCER S &amp; TN no TN： tumor-normal paired S : Single sample 4.1.3 Time &amp; memory usage DHC1 Software time max mem(Kb) delly 1:21:11 1702204 lumpy 22:35.90 524248 novobreak 28:33.08 38702328 breakdancer 8:37.23 224836 DHC2 Software time max mem(Kb) delly 55:19.49 1670304 lumpy 20:40.71 319492 novobreak 24:43.57 38702384 breakdancer 7:52.54 173084 4.1.4 Parameters Optimization For each workflow, in order to achieve its best performance in the DHC datasets, we select several parameters to precisely tune. 4.1.4.1 novobreak arguments selection For novobreak, we select -k, -g and -m for pruning, in which the -k and -m are expected to improve performance, and the -g option is used to implement a tumor-only detecting mode. option description value range -k Kmer size, 11&lt;=k&lt;=31 [default: 31] 11,16,21,26,31 -g Output germline events [default: 0] 0,1 -m Minimum kmer count regarded as novo kmers [default: 3] 1,2,3 result When -g is set as 1 or -k is set as 11, an error has occurred in this pipeline, and other parameters’ performance is shown below. From the ROC curve(due to the lack of training data, this ROC curve may not seem like a normal ROC curve), but we can choose the upper left point as best-performance point, where m=2 and k=26. 4.1.4.2 breakdancer arguments selection From those parameters listed in the help page of breakdancer, we select -s, -q, -r, and -x for tuning, and -c and -b are left for further optimizing in case. option description value range -s minimum length of a region [default: 7] 2,7,11 -q minimum alternative mapping quality [default: 35] 10 35 -r minimum number of read pairs required to establish a connection [default: 2] 1 2 -x maximum threshold of haploid sequence coverage for regions to be ignored [default: 1000] 1000,5000,10000 * The -s specifies the minimal required size of a SV anchoring region from which the anomalously mapped reads are found. This parameter has some small effects on the SV detection accuracy. Increasing -s improves the specificity but also reduces the sensitivity. The default 7 bp seemed to work well. ref: https://github.com/genome/breakdancer result For all parameter combination, the FP is always 1 and TP is 0. 4.1.4.3 lumpy arguments selection As for lumpy, we select min_non_overlap for tunning, because the length of ctDNA fragment is about 170bp, and leave -tt for future optimizing. Also -mw may influence the run time of svtyper. option description value range min_non_overlap Number of base pair positions that must be unique to each end of a read pair. Some library preps are created with large reads and small library sizes such that read overlap, in all over cases overlapping reads tends to be a sign of an error. We typically set this to read length (pairs cannot overlap). 0,30,60,90,120,150,180 result Lumpy does not have a built-in filter, so the false positive rate is close to 1, but changing the value of min_non_overlap does have some infuence on true positive rate(the blue line in the upper figure). 4.1.4.4 delly filter arguments selection Delly has a stand-alone filter, delly filter, so we select two options of delly filter for tuning and the default value of option -a and -v shows the best performance. option description value range -a min. fractional ALT support [default: 0.200000003] 0.1-0.9 -v min. coverage in tumor [default: 10 ] 1-10 option -a When testing -a option, -v is set to default value. From the upper figure, decreasing -a improves FP rate and increasing -a reduces TP rate, and from the ROC curve we can see that there is a point that FP=0 and TP=1, where a=0.2. option -v When testing -v option , -a is set to its default (0.200000003). From the figure, -v option is relative to FP rate but has no influence on TP rate, and the best-performance point is v=6,7,8,9,10. 4.2 Gene fusion notations To precisely represent a gene fusion, there are exactly 6 variables need to be determined: two chromosomes, two positions and two directions(or strands). bedpe format Denotation Here are 4 examples of different bedpe records. For the first bedpe record, strand1 and strand2 are ‘+’ and ‘+’ respectively, breakpoint1 is end1, piece extending to the left of breakpoint1 is upstream gene; breakpoint2 is start2, piece extending to the right of breakpoint2 is downstream gene; For the second, strand1 is ‘+’ and strand2 is ‘-’, breakpoint1 is end1, piece extending left of breakpoint1 is upstream gene; breakpoint2 is end2, piece extending left of breakpoint2 is downstream gene; For the third, ‘-’ and ‘+’, breakpoint1 is start1, piece extending right of breakpoint1 is upstream gene; breakpoint2 is start2, piece extending right of breakpoint2 is downstream gene; For the last, ‘-’ and ‘-’, breakpoint1 is start1, piece extending right of breakpoint1 is upstream gene; breakpoint2 is end2, piece extending left of breakpoint2 is downstream gene. chr1 start1 end1 chr2 start2 end2 id brass_score strand1 strand2 chr1 - breakpoint1 chr6 breakpoint2 - 1 . + + chr1 - breakpoint1 chr6 - breakpoint2 2 . + - chr1 breakpoint1 - chr6 breakpoint2 - 3 . - + chr1 breakpoint1 - chr6 - breakpoint2 4 . - - synonym For any given gene fusion record, it has synonym notation. The conversion rule is to take the downstream chr:pos as upstream partner, and upstream chr:pos as downstream partner, and flip over their strands. For example, for chr1:pos1(+)-chr2:pos2(-), its synonym is chr2:pos2(+)-chr1:pos1(-), and for chr1:pos1(+)-chr2:pos2(+), the synonym is chr2:pos2(-)-chr1:pos1(-). vcf format This file description below is modified from VCFv4.2 specs. CHRM POS ALT Meaning Corresponding bedpe chr1 pos1 t[chr2:pos2[ piece extending to the right of chr2:pos2 is joined after t chr1 pos1 + chr2 pos2 + chr1 pos1 t]chr2:pos2] reverse comp piece extending left of chr2:pos2 is joined after t chr1 pos1 + chr2 pos2 - chr1 pos1 ]chr2:pos2]t piece extending to the left of chr2:pos2 is joined before t chr2 pos2 + chr1 pos1 + chr1 pos1 [chr2:pos2[t reverse comp piece extending right of chr2:pos2 is joined before t chr2 pos2 - chr1 pos1 + Note that there is no ‘chr1 pos1 - chr2 pos2 -’ in vcf format, but only its synonym: ‘chr2 pos2 + chr1 pos1 +’. 4.3 VAF calculation 4.3.1 Comparison of 4 methods \\[\\frac{AD}{RD}\\] \\[\\frac{AD_{breakpoint}}{mean(RD_{gene1},RD_{gene2})}\\] \\[\\frac{AD_{breakpoint}}{max(RD_{gene1},RD_{gene2})}\\] \\(AF\\): \\(AO_i\\) from svtyper; \\(RD\\): \\(AO_i+RO_i\\) from svtyper \\(AF\\): \\(AO_i\\) from svtyper; \\(RD_{gene1}\\)/\\(RD_{gene2}\\): samtools view breakpoint1/breakpoint2 \\(AF\\): \\(SU_i\\) from lumpy; \\(RD_{gene1}\\) / \\(RD_{gene2}\\): samtools view breakpoint1/breakpoint2 Rebuild reference fasta and samtools view \\[\\frac{Reads_C}{Reads_C + mean(Reads_A, Reads_B)}\\] \\[\\frac{Reads_C}{Reads_C + max(Reads_A, Reads_B)}\\] svtyper: Bayesian genotyper for structural variants. AO: Alternate allele observations RO: Reference allele observation count lumpy-sv SU: Number of pieces of evidence supporting the variant across all samples 4.3.2 Optimizing parameters 4.3.2.1 svtyper -m option 4.3.2.1.1 rmdup DHC1 4.3.2.1.2 rmdup DHC2-1 4.3.2.1.3 rmdup DHC2-2 4.3.2.1.4 markdup DHC1 4.3.2.1.5 markdup DHC2-1 4.3.2.1.6 markdup DHC2-2 4.3.2.1.7 bwa.bam DHC1 4.3.2.1.8 bwa.bam DHC2-1 4.3.2.1.9 bwa.bam DHC2-2 4.3.2.1.10 mean square error 9 samples counted in. \\(mse=\\frac{\\sum_{i=1}^{9}(\\frac{AF1_i-baseline_i}{baseline_i})^2}{9}\\) "]
]
